%YAML 1.1
%TAG !u! tag:unity3d.com,2011:
--- !u!1001 &7801868790987437412
PrefabInstance:
  m_ObjectHideFlags: 0
  serializedVersion: 2
  m_Modification:
    m_TransformParent: {fileID: 0}
    m_Modifications:
    - target: {fileID: 1230913063707612, guid: d59caabd856003e4eb793f58bc01e9be, type: 3}
      propertyPath: m_Name
      value: Floor_3m
      objectReference: {fileID: 0}
    - target: {fileID: 4968223652552510, guid: d59caabd856003e4eb793f58bc01e9be, type: 3}
      propertyPath: m_LocalPosition.x
      value: 4.9
      objectReference: {fileID: 0}
    - target: {fileID: 4968223652552510, guid: d59caabd856003e4eb793f58bc01e9be, type: 3}
      propertyPath: m_LocalPosition.y
      value: 0.694
      objectReference: {fileID: 0}
    - target: {fileID: 4968223652552510, guid: d59caabd856003e4eb793f58bc01e9be, type: 3}
      propertyPath: m_LocalPosition.z
      value: 12.78
      objectReference: {fileID: 0}
    - target: {fileID: 4968223652552510, guid: d59caabd856003e4eb793f58bc01e9be, type: 3}
      propertyPath: m_LocalRotation.x
      value: 0
      objectReference: {fileID: 0}
    - target: {fileID: 4968223652552510, guid: d59caabd856003e4eb793f58bc01e9be, type: 3}
      propertyPath: m_LocalRotation.y
      value: 0
      objectReference: {fileID: 0}
    - target: {fileID: 4968223652552510, guid: d59caabd856003e4eb793f58bc01e9be, type: 3}
      propertyPath: m_LocalRotation.z
      value: 0
      objectReference: {fileID: 0}
    - target: {fileID: 4968223652552510, guid: d59caabd856003e4eb793f58bc01e9be, type: 3}
      propertyPath: m_LocalRotation.w
      value: 1
      objectReference: {fileID: 0}
    - target: {fileID: 4968223652552510, guid: d59caabd856003e4eb793f58bc01e9be, type: 3}
      propertyPath: m_RootOrder
      value: 0
      objectReference: {fileID: 0}
    - target: {fileID: 23387069374623850, guid: d59caabd856003e4eb793f58bc01e9be,
        type: 3}
      propertyPath: m_Materials.Array.data[0]
      value: 
      objectReference: {fileID: 2100000, guid: 974e63ea883ec10418b3926ceed30633, type: 2}
    m_RemovedComponents: []
  m_SourcePrefab: {fileID: 100100000, guid: d59caabd856003e4eb793f58bc01e9be, type: 3}
